%YAML 1.1
%TAG !u! tag:unity3d.com,2011:
--- !u!74 &7400000
AnimationClip:
  m_ObjectHideFlags: 0
  m_PrefabParentObject: {fileID: 0}
  m_PrefabInternal: {fileID: 0}
  m_Name: ComboP2
  serializedVersion: 4
  m_AnimationType: 2
  m_Compressed: 0
  m_UseHighQualityCurve: 1
  m_RotationCurves: []
  m_CompressedRotationCurves: []
  m_PositionCurves:
  - curve:
      serializedVersion: 2
      m_Curve:
      - time: 0
        value: {x: .739554882, y: .25364542, z: 0}
        inSlope: {x: 1.42833841, y: 1.47265923, z: 0}
        outSlope: {x: 1.42833841, y: 1.47265923, z: 0}
        tangentMode: 771424292
      - time: .13333334
        value: {x: .930000007, y: .449999988, z: 0}
        inSlope: {x: 1.42833841, y: 1.47265923, z: 0}
        outSlope: {x: 1.42833841, y: 1.47265923, z: 0}
        tangentMode: 1767140975
      m_PreInfinity: 2
      m_PostInfinity: 2
    path: AttackCollider
  m_ScaleCurves:
  - curve:
      serializedVersion: 2
      m_Curve:
      - time: 0
        value: {x: .5, y: .5, z: .5}
        inSlope: {x: 3.74999976, y: 3.74999976, z: 3.74999976}
        outSlope: {x: 3.74999976, y: 3.74999976, z: 3.74999976}
        tangentMode: 96
      - time: .13333334
        value: {x: 1, y: 1, z: 1}
        inSlope: {x: 3.74999976, y: 3.74999976, z: 3.74999976}
        outSlope: {x: 3.74999976, y: 3.74999976, z: 3.74999976}
        tangentMode: 1124335616
      m_PreInfinity: 2
      m_PostInfinity: 2
    path: AttackCollider
  - curve:
      serializedVersion: 2
      m_Curve:
      - time: 0
        value: {x: .5, y: 1, z: 1}
        inSlope: {x: 0, y: 0, z: 0}
        outSlope: {x: 0, y: 0, z: 0}
        tangentMode: 0
      m_PreInfinity: 2
      m_PostInfinity: 2
    path: DamageCollider
  m_FloatCurves:
  - curve:
      serializedVersion: 2
      m_Curve:
      - time: 0
        value: 1
        inSlope: Infinity
        outSlope: Infinity
        tangentMode: 31
      - time: .0666666701
        value: 0
        inSlope: Infinity
        outSlope: Infinity
        tangentMode: 31
      m_PreInfinity: 2
      m_PostInfinity: 2
    attribute: m_Enabled
    path: 
    classID: 114
    script: {fileID: 11500000, guid: 28050eef0eb56b146a4e0fd13ca7d69a, type: 3}
  - curve:
      serializedVersion: 2
      m_Curve:
      - time: 0
        value: 0
        inSlope: Infinity
        outSlope: Infinity
        tangentMode: 31
      - time: .13333334
        value: 1
        inSlope: Infinity
        outSlope: Infinity
        tangentMode: 31
      - time: .266666681
        value: 0
        inSlope: Infinity
        outSlope: Infinity
        tangentMode: 31
      m_PreInfinity: 2
      m_PostInfinity: 2
    attribute: m_IsActive
    path: AttackCollider
    classID: 1
    script: {fileID: 0}
  - curve:
      serializedVersion: 2
      m_Curve:
      - time: 0
        value: 1
        inSlope: Infinity
        outSlope: Infinity
        tangentMode: 31
      - time: .333333343
        value: 0
        inSlope: Infinity
        outSlope: Infinity
        tangentMode: 31
      m_PreInfinity: 2
      m_PostInfinity: 2
    attribute: m_IsActive
    path: comboaudio2
    classID: 1
    script: {fileID: 0}
  m_PPtrCurves:
  - curve:
    - time: 0
      value: {fileID: 21300312, guid: ddfd5bd0a08dcd94581a988a414f4747, type: 3}
    - time: .0666666701
      value: {fileID: 21300314, guid: ddfd5bd0a08dcd94581a988a414f4747, type: 3}
    - time: .13333334
      value: {fileID: 21300316, guid: ddfd5bd0a08dcd94581a988a414f4747, type: 3}
    - time: .200000003
      value: {fileID: 21300318, guid: ddfd5bd0a08dcd94581a988a414f4747, type: 3}
    - time: .266666681
      value: {fileID: 21300320, guid: ddfd5bd0a08dcd94581a988a414f4747, type: 3}
    attribute: m_Sprite
    path: 
    classID: 212
    script: {fileID: 0}
  m_SampleRate: 15
  m_WrapMode: 0
  m_Bounds:
    m_Center: {x: 0, y: 0, z: 0}
    m_Extent: {x: 0, y: 0, z: 0}
  m_ClipBindingConstant:
    genericBindings:
    - path: 1943655107
      attribute: 1
      script: {fileID: 0}
      classID: 4
      customType: 0
      isPPtrCurve: 0
    - path: 1943655107
      attribute: 3
      script: {fileID: 0}
      classID: 4
      customType: 0
      isPPtrCurve: 0
    - path: 0
      attribute: 3305885265
      script: {fileID: 11500000, guid: 28050eef0eb56b146a4e0fd13ca7d69a, type: 3}
      classID: 114
      customType: 24
      isPPtrCurve: 0
    - path: 1943655107
      attribute: 2086281974
      script: {fileID: 0}
      classID: 1
      customType: 0
      isPPtrCurve: 0
    - path: 3945522754
      attribute: 2086281974
      script: {fileID: 0}
      classID: 1
      customType: 0
      isPPtrCurve: 0
    - path: 0
      attribute: 0
      script: {fileID: 0}
      classID: 212
      customType: 23
      isPPtrCurve: 1
    - path: 248120802
      attribute: 3
      script: {fileID: 0}
      classID: 4
      customType: 0
      isPPtrCurve: 0
    pptrCurveMapping:
    - {fileID: 21300312, guid: ddfd5bd0a08dcd94581a988a414f4747, type: 3}
    - {fileID: 21300314, guid: ddfd5bd0a08dcd94581a988a414f4747, type: 3}
    - {fileID: 21300316, guid: ddfd5bd0a08dcd94581a988a414f4747, type: 3}
    - {fileID: 21300318, guid: ddfd5bd0a08dcd94581a988a414f4747, type: 3}
    - {fileID: 21300320, guid: ddfd5bd0a08dcd94581a988a414f4747, type: 3}
  m_AnimationClipSettings:
    serializedVersion: 2
    m_StartTime: 0
    m_StopTime: .333333343
    m_OrientationOffsetY: 0
    m_Level: 0
    m_CycleOffset: 0
    m_LoopTime: 1
    m_LoopBlend: 0
    m_LoopBlendOrientation: 0
    m_LoopBlendPositionY: 0
    m_LoopBlendPositionXZ: 0
    m_KeepOriginalOrientation: 0
    m_KeepOriginalPositionY: 1
    m_KeepOriginalPositionXZ: 0
    m_HeightFromFeet: 0
    m_Mirror: 0
  m_EditorCurves:
  - curve:
      serializedVersion: 2
      m_Curve:
      - time: 0
        value: 1
        inSlope: Infinity
        outSlope: Infinity
        tangentMode: 31
      - time: .0666666701
        value: 0
        inSlope: Infinity
        outSlope: Infinity
        tangentMode: 31
      m_PreInfinity: 2
      m_PostInfinity: 2
    attribute: m_Enabled
    path: 
    classID: 114
    script: {fileID: 11500000, guid: 28050eef0eb56b146a4e0fd13ca7d69a, type: 3}
  - curve:
      serializedVersion: 2
      m_Curve:
      - time: 0
        value: 0
        inSlope: Infinity
        outSlope: Infinity
        tangentMode: 31
      - time: .13333334
        value: 1
        inSlope: Infinity
        outSlope: Infinity
        tangentMode: 31
      - time: .266666681
        value: 0
        inSlope: Infinity
        outSlope: Infinity
        tangentMode: 31
      m_PreInfinity: 2
      m_PostInfinity: 2
    attribute: m_IsActive
    path: AttackCollider
    classID: 1
    script: {fileID: 0}
  - curve:
      serializedVersion: 2
      m_Curve:
      - time: 0
        value: .739554882
        inSlope: 1.42833841
        outSlope: 1.42833841
        tangentMode: 10
      - time: .13333334
        value: .930000007
        inSlope: 1.42833841
        outSlope: 1.42833841
        tangentMode: 10
      m_PreInfinity: 2
      m_PostInfinity: 2
    attribute: m_LocalPosition.x
    path: AttackCollider
    classID: 4
    script: {fileID: 0}
  - curve:
      serializedVersion: 2
      m_Curve:
      - time: 0
        value: .25364542
        inSlope: 1.47265923
        outSlope: 1.47265923
        tangentMode: 10
      - time: .13333334
        value: .449999988
        inSlope: 1.47265923
        outSlope: 1.47265923
        tangentMode: 10
      m_PreInfinity: 2
      m_PostInfinity: 2
    attribute: m_LocalPosition.y
    path: AttackCollider
    classID: 4
    script: {fileID: 0}
  - curve:
      serializedVersion: 2
      m_Curve:
      - time: 0
        value: 0
        inSlope: 0
        outSlope: 0
        tangentMode: 10
      - time: .13333334
        value: 0
        inSlope: 0
        outSlope: 0
        tangentMode: 10
      m_PreInfinity: 2
      m_PostInfinity: 2
    attribute: m_LocalPosition.z
    path: AttackCollider
    classID: 4
    script: {fileID: 0}
  - curve:
      serializedVersion: 2
      m_Curve:
      - time: 0
        value: .5
        inSlope: 3.74999976
        outSlope: 3.74999976
        tangentMode: 10
      - time: .13333334
        value: 1
        inSlope: 3.74999976
        outSlope: 3.74999976
        tangentMode: 10
      m_PreInfinity: 2
      m_PostInfinity: 2
    attribute: m_LocalScale.x
    path: AttackCollider
    classID: 4
    script: {fileID: 0}
  - curve:
      serializedVersion: 2
      m_Curve:
      - time: 0
        value: .5
        inSlope: 3.74999976
        outSlope: 3.74999976
        tangentMode: 10
      - time: .13333334
        value: 1
        inSlope: 3.74999976
        outSlope: 3.74999976
        tangentMode: 10
      m_PreInfinity: 2
      m_PostInfinity: 2
    attribute: m_LocalScale.y
    path: AttackCollider
    classID: 4
    script: {fileID: 0}
  - curve:
      serializedVersion: 2
      m_Curve:
      - time: 0
        value: .5
        inSlope: 3.74999976
        outSlope: 3.74999976
        tangentMode: 10
      - time: .13333334
        value: 1
        inSlope: 3.74999976
        outSlope: 3.74999976
        tangentMode: 10
      m_PreInfinity: 2
      m_PostInfinity: 2
    attribute: m_LocalScale.z
    path: AttackCollider
    classID: 4
    script: {fileID: 0}
  - curve:
      serializedVersion: 2
      m_Curve:
      - time: 0
        value: .5
        inSlope: 0
        outSlope: 0
        tangentMode: 10
      m_PreInfinity: 2
      m_PostInfinity: 2
    attribute: m_LocalScale.x
    path: DamageCollider
    classID: 4
    script: {fileID: 0}
  - curve:
      serializedVersion: 2
      m_Curve:
      - time: 0
        value: 1
        inSlope: 0
        outSlope: 0
        tangentMode: 10
      m_PreInfinity: 2
      m_PostInfinity: 2
    attribute: m_LocalScale.y
    path: DamageCollider
    classID: 4
    script: {fileID: 0}
  - curve:
      serializedVersion: 2
      m_Curve:
      - time: 0
        value: 1
        inSlope: 0
        outSlope: 0
        tangentMode: 10
      m_PreInfinity: 2
      m_PostInfinity: 2
    attribute: m_LocalScale.z
    path: DamageCollider
    classID: 4
    script: {fileID: 0}
  - curve:
      serializedVersion: 2
      m_Curve:
      - time: 0
        value: 1
        inSlope: Infinity
        outSlope: Infinity
        tangentMode: 31
      - time: .333333343
        value: 0
        inSlope: Infinity
        outSlope: Infinity
        tangentMode: 31
      m_PreInfinity: 2
      m_PostInfinity: 2
    attribute: m_IsActive
    path: comboaudio2
    classID: 1
    script: {fileID: 0}
  m_EulerEditorCurves: []
  m_Events: []
