%YAML 1.1
%TAG !u! tag:unity3d.com,2011:
--- !u!74 &7400000
AnimationClip:
  m_ObjectHideFlags: 0
  m_PrefabParentObject: {fileID: 0}
  m_PrefabInternal: {fileID: 0}
  m_Name: Smash
  serializedVersion: 4
  m_AnimationType: 2
  m_Compressed: 0
  m_UseHighQualityCurve: 1
  m_RotationCurves: []
  m_CompressedRotationCurves: []
  m_PositionCurves: []
  m_ScaleCurves:
  - curve:
      serializedVersion: 2
      m_Curve:
      - time: 0
        value: {x: -1, y: 1, z: 1}
        inSlope: {x: 5, y: 0, z: 0}
        outSlope: {x: 5, y: 0, z: 0}
        tangentMode: 0
      - time: .400000006
        value: {x: 1, y: 1, z: 1}
        inSlope: {x: 5, y: 0, z: 0}
        outSlope: {x: 5, y: 0, z: 0}
        tangentMode: 772407296
      m_PreInfinity: 2
      m_PostInfinity: 2
    path: SmashFistParticles
  m_FloatCurves:
  - curve:
      serializedVersion: 2
      m_Curve:
      - time: 0
        value: 0
        inSlope: Infinity
        outSlope: Infinity
        tangentMode: 31
      - time: .400000006
        value: 1
        inSlope: Infinity
        outSlope: Infinity
        tangentMode: 31
      - time: 1.20000005
        value: 0
        inSlope: Infinity
        outSlope: Infinity
        tangentMode: 31
      m_PreInfinity: 2
      m_PostInfinity: 2
    attribute: m_IsActive
    path: SmashFistParticles
    classID: 1
    script: {fileID: 0}
  - curve:
      serializedVersion: 2
      m_Curve:
      - time: 0
        value: 0
        inSlope: Infinity
        outSlope: Infinity
        tangentMode: 31
      - time: .400000006
        value: 1
        inSlope: Infinity
        outSlope: Infinity
        tangentMode: 31
      - time: 1.30000007
        value: 0
        inSlope: Infinity
        outSlope: Infinity
        tangentMode: 31
      m_PreInfinity: 2
      m_PostInfinity: 2
    attribute: m_IsActive
    path: SmashParticles
    classID: 1
    script: {fileID: 0}
  - curve:
      serializedVersion: 2
      m_Curve:
      - time: 0
        value: 0
        inSlope: Infinity
        outSlope: Infinity
        tangentMode: 31
      - time: .400000006
        value: 1
        inSlope: Infinity
        outSlope: Infinity
        tangentMode: 31
      - time: 1.30000007
        value: 0
        inSlope: Infinity
        outSlope: Infinity
        tangentMode: 31
      m_PreInfinity: 2
      m_PostInfinity: 2
    attribute: m_Enabled
    path: SmashParticles
    classID: 212
    script: {fileID: 0}
  - curve:
      serializedVersion: 2
      m_Curve:
      - time: 0
        value: 1
        inSlope: Infinity
        outSlope: Infinity
        tangentMode: 31
      - time: 1.30000007
        value: 1
        inSlope: Infinity
        outSlope: Infinity
        tangentMode: 31
      m_PreInfinity: 2
      m_PostInfinity: 2
    attribute: m_IsActive
    path: Earthquakevocal
    classID: 1
    script: {fileID: 0}
  m_PPtrCurves:
  - curve:
    - time: 0
      value: {fileID: 21300000, guid: a7876840cd237c04fa269c156b2dca8d, type: 3}
    - time: .100000001
      value: {fileID: 21300000, guid: a7b100fe25f450f43b60c21c68d00e8c, type: 3}
    - time: .200000003
      value: {fileID: 21300000, guid: 4c2f22384ae2532418d2c5e163d9e381, type: 3}
    - time: .300000012
      value: {fileID: 21300000, guid: 4d2bf607273fcec43b03f08c8d283872, type: 3}
    - time: .400000006
      value: {fileID: 21300000, guid: 76483d16dc5bc4f4fae07de3249a9ab0, type: 3}
    - time: .5
      value: {fileID: 21300000, guid: 3c8c33196bd9b5a489413761a74e8286, type: 3}
    - time: .600000024
      value: {fileID: 21300000, guid: 76483d16dc5bc4f4fae07de3249a9ab0, type: 3}
    - time: .699999988
      value: {fileID: 21300000, guid: 3c8c33196bd9b5a489413761a74e8286, type: 3}
    - time: .800000012
      value: {fileID: 21300000, guid: 76483d16dc5bc4f4fae07de3249a9ab0, type: 3}
    - time: .899999976
      value: {fileID: 21300000, guid: 3c8c33196bd9b5a489413761a74e8286, type: 3}
    - time: 1
      value: {fileID: 21300000, guid: 76483d16dc5bc4f4fae07de3249a9ab0, type: 3}
    - time: 1.10000002
      value: {fileID: 21300000, guid: 3c8c33196bd9b5a489413761a74e8286, type: 3}
    - time: 1.20000005
      value: {fileID: 21300000, guid: 34dbf3e6babddcc4e8c4b7bf42d39362, type: 3}
    attribute: m_Sprite
    path: 
    classID: 212
    script: {fileID: 0}
  - curve:
    - time: 0
      value: {fileID: 21300000, guid: 428af7c9983083849a3005f76ce35a72, type: 3}
    - time: .5
      value: {fileID: 21300000, guid: aab401a1829631a4aafa88b778966bd7, type: 3}
    - time: .600000024
      value: {fileID: 21300000, guid: 005da8eafa07c6e4d8089f54267e85ee, type: 3}
    - time: .699999988
      value: {fileID: 21300000, guid: e1f2c211f94875445a5182d109f59144, type: 3}
    - time: .800000012
      value: {fileID: 21300000, guid: f679b91f766548b44914bf8b7e763d50, type: 3}
    - time: .899999976
      value: {fileID: 21300000, guid: d10c036c96936c8449b6b3fbc627e676, type: 3}
    - time: 1
      value: {fileID: 21300000, guid: 326b892fc2db0a349b466405d77b91d6, type: 3}
    - time: 1.10000002
      value: {fileID: 21300000, guid: e2255a42c5892a0469ae3ba9895fa115, type: 3}
    attribute: m_Sprite
    path: SmashFistParticles
    classID: 212
    script: {fileID: 0}
  m_SampleRate: 10
  m_WrapMode: 0
  m_Bounds:
    m_Center: {x: 0, y: 0, z: 0}
    m_Extent: {x: 0, y: 0, z: 0}
  m_ClipBindingConstant:
    genericBindings:
    - path: 3745009951
      attribute: 3
      script: {fileID: 0}
      classID: 4
      customType: 0
      isPPtrCurve: 0
    - path: 3745009951
      attribute: 2086281974
      script: {fileID: 0}
      classID: 1
      customType: 0
      isPPtrCurve: 0
    - path: 2107953863
      attribute: 2086281974
      script: {fileID: 0}
      classID: 1
      customType: 0
      isPPtrCurve: 0
    - path: 2107953863
      attribute: 3305885265
      script: {fileID: 0}
      classID: 212
      customType: 0
      isPPtrCurve: 0
    - path: 559682126
      attribute: 2086281974
      script: {fileID: 0}
      classID: 1
      customType: 0
      isPPtrCurve: 0
    - path: 0
      attribute: 0
      script: {fileID: 0}
      classID: 212
      customType: 23
      isPPtrCurve: 1
    - path: 3745009951
      attribute: 0
      script: {fileID: 0}
      classID: 212
      customType: 23
      isPPtrCurve: 1
    pptrCurveMapping:
    - {fileID: 21300000, guid: a7876840cd237c04fa269c156b2dca8d, type: 3}
    - {fileID: 21300000, guid: a7b100fe25f450f43b60c21c68d00e8c, type: 3}
    - {fileID: 21300000, guid: 4c2f22384ae2532418d2c5e163d9e381, type: 3}
    - {fileID: 21300000, guid: 4d2bf607273fcec43b03f08c8d283872, type: 3}
    - {fileID: 21300000, guid: 76483d16dc5bc4f4fae07de3249a9ab0, type: 3}
    - {fileID: 21300000, guid: 3c8c33196bd9b5a489413761a74e8286, type: 3}
    - {fileID: 21300000, guid: 76483d16dc5bc4f4fae07de3249a9ab0, type: 3}
    - {fileID: 21300000, guid: 3c8c33196bd9b5a489413761a74e8286, type: 3}
    - {fileID: 21300000, guid: 76483d16dc5bc4f4fae07de3249a9ab0, type: 3}
    - {fileID: 21300000, guid: 3c8c33196bd9b5a489413761a74e8286, type: 3}
    - {fileID: 21300000, guid: 76483d16dc5bc4f4fae07de3249a9ab0, type: 3}
    - {fileID: 21300000, guid: 3c8c33196bd9b5a489413761a74e8286, type: 3}
    - {fileID: 21300000, guid: 34dbf3e6babddcc4e8c4b7bf42d39362, type: 3}
    - {fileID: 21300000, guid: 428af7c9983083849a3005f76ce35a72, type: 3}
    - {fileID: 21300000, guid: aab401a1829631a4aafa88b778966bd7, type: 3}
    - {fileID: 21300000, guid: 005da8eafa07c6e4d8089f54267e85ee, type: 3}
    - {fileID: 21300000, guid: e1f2c211f94875445a5182d109f59144, type: 3}
    - {fileID: 21300000, guid: f679b91f766548b44914bf8b7e763d50, type: 3}
    - {fileID: 21300000, guid: d10c036c96936c8449b6b3fbc627e676, type: 3}
    - {fileID: 21300000, guid: 326b892fc2db0a349b466405d77b91d6, type: 3}
    - {fileID: 21300000, guid: e2255a42c5892a0469ae3ba9895fa115, type: 3}
  m_AnimationClipSettings:
    serializedVersion: 2
    m_StartTime: 0
    m_StopTime: 1.30000007
    m_OrientationOffsetY: 0
    m_Level: 0
    m_CycleOffset: 0
    m_LoopTime: 0
    m_LoopBlend: 0
    m_LoopBlendOrientation: 0
    m_LoopBlendPositionY: 0
    m_LoopBlendPositionXZ: 0
    m_KeepOriginalOrientation: 0
    m_KeepOriginalPositionY: 1
    m_KeepOriginalPositionXZ: 0
    m_HeightFromFeet: 0
    m_Mirror: 0
  m_EditorCurves:
  - curve:
      serializedVersion: 2
      m_Curve:
      - time: 0
        value: 0
        inSlope: Infinity
        outSlope: Infinity
        tangentMode: 31
      - time: .400000006
        value: 1
        inSlope: Infinity
        outSlope: Infinity
        tangentMode: 31
      - time: 1.20000005
        value: 0
        inSlope: Infinity
        outSlope: Infinity
        tangentMode: 31
      m_PreInfinity: 2
      m_PostInfinity: 2
    attribute: m_IsActive
    path: SmashFistParticles
    classID: 1
    script: {fileID: 0}
  - curve:
      serializedVersion: 2
      m_Curve:
      - time: 0
        value: -1
        inSlope: 5
        outSlope: 5
        tangentMode: 10
      - time: .400000006
        value: 1
        inSlope: 5
        outSlope: 5
        tangentMode: 10
      m_PreInfinity: 2
      m_PostInfinity: 2
    attribute: m_LocalScale.x
    path: SmashFistParticles
    classID: 4
    script: {fileID: 0}
  - curve:
      serializedVersion: 2
      m_Curve:
      - time: 0
        value: 1
        inSlope: 0
        outSlope: 0
        tangentMode: 10
      - time: .400000006
        value: 1
        inSlope: 0
        outSlope: 0
        tangentMode: 10
      m_PreInfinity: 2
      m_PostInfinity: 2
    attribute: m_LocalScale.y
    path: SmashFistParticles
    classID: 4
    script: {fileID: 0}
  - curve:
      serializedVersion: 2
      m_Curve:
      - time: 0
        value: 1
        inSlope: 0
        outSlope: 0
        tangentMode: 10
      - time: .400000006
        value: 1
        inSlope: 0
        outSlope: 0
        tangentMode: 10
      m_PreInfinity: 2
      m_PostInfinity: 2
    attribute: m_LocalScale.z
    path: SmashFistParticles
    classID: 4
    script: {fileID: 0}
  - curve:
      serializedVersion: 2
      m_Curve:
      - time: 0
        value: 0
        inSlope: Infinity
        outSlope: Infinity
        tangentMode: 31
      - time: .400000006
        value: 1
        inSlope: Infinity
        outSlope: Infinity
        tangentMode: 31
      - time: 1.30000007
        value: 0
        inSlope: Infinity
        outSlope: Infinity
        tangentMode: 31
      m_PreInfinity: 2
      m_PostInfinity: 2
    attribute: m_IsActive
    path: SmashParticles
    classID: 1
    script: {fileID: 0}
  - curve:
      serializedVersion: 2
      m_Curve:
      - time: 0
        value: 0
        inSlope: Infinity
        outSlope: Infinity
        tangentMode: 31
      - time: .400000006
        value: 1
        inSlope: Infinity
        outSlope: Infinity
        tangentMode: 31
      - time: 1.30000007
        value: 0
        inSlope: Infinity
        outSlope: Infinity
        tangentMode: 31
      m_PreInfinity: 2
      m_PostInfinity: 2
    attribute: m_Enabled
    path: SmashParticles
    classID: 212
    script: {fileID: 0}
  - curve:
      serializedVersion: 2
      m_Curve:
      - time: 0
        value: 1
        inSlope: Infinity
        outSlope: Infinity
        tangentMode: 31
      - time: 1.30000007
        value: 1
        inSlope: Infinity
        outSlope: Infinity
        tangentMode: 31
      m_PreInfinity: 2
      m_PostInfinity: 2
    attribute: m_IsActive
    path: Earthquakevocal
    classID: 1
    script: {fileID: 0}
  m_EulerEditorCurves: []
  m_Events: []
